<?xml version="1.0" encoding="UTF-8" standalone="no"?>
<!-- Created with Inkscape (http://www.inkscape.org/) -->

<svg
   xmlns:dc="http://purl.org/dc/elements/1.1/"
   xmlns:cc="http://creativecommons.org/ns#"
   xmlns:rdf="http://www.w3.org/1999/02/22-rdf-syntax-ns#"
   xmlns:svg="http://www.w3.org/2000/svg"
   xmlns="http://www.w3.org/2000/svg"
   version="1.1"
   width="210.00005"
   height="210.00011"
   id="svg20434">
  <defs
     id="defs20436" />
  <metadata
     id="metadata20439">
    <rdf:RDF>
      <cc:Work
         rdf:about="">
        <dc:format>image/svg+xml</dc:format>
        <dc:type
           rdf:resource="http://purl.org/dc/dcmitype/StillImage" />
        <dc:title></dc:title>
      </cc:Work>
    </rdf:RDF>
  </metadata>
  <g
     transform="translate(-212.14284,-395.93356)"
     id="layer1">
    <g
       transform="translate(185.71422,-623.91584)"
       id="g6054">
      <path
         d="m 131.42866,1019.8494 c -57.94074,0 -105.00004,47.0398 -105.00004,104.9794 0,57.9396 47.0617,105.0207 105.00004,105.0207 57.9382,0 105,-47.0812 105,-105.0207 0,-57.9396 -47.0593,-104.9794 -105,-104.9794 z m -7.0938,8.5415 c 2.7406,0.067 5.1891,2.5738 5.1911,5.3151 l 0,15.1753 3.9915,0 0,-15.1753 c 0,-1.4592 0.6377,-2.9065 1.7094,-3.8969 1.0717,-0.9905 2.5644,-1.5095 4.0194,-1.3975 47.2557,3.7613 84.8617,41.4011 88.5996,88.6616 0.1119,1.455 -0.4071,2.9477 -1.3975,4.0194 -0.9905,1.0717 -2.4377,1.7065 -3.897,1.7094 l -15.1132,0 0,3.9915 15.1132,0 c 1.4593,0 2.9065,0.6377 3.897,1.7094 0.9904,1.0717 1.5094,2.5644 1.3975,4.0194 -3.702,47.2973 -41.32,84.9397 -88.5996,88.703 -1.455,0.1119 -2.9477,-0.4071 -4.0194,-1.3975 -1.0717,-0.9905 -1.7065,-2.4377 -1.7094,-3.897 l 0,-15.0305 -3.9915,0 0,15.0305 c 0,1.4593 -0.6377,2.9065 -1.7094,3.897 -1.0717,0.9904 -2.5644,1.5094 -4.0194,1.3975 -47.36314,-3.6812 -85.05844,-41.3456 -88.76504,-88.703 -0.112,-1.455 0.407,-2.9477 1.3975,-4.0194 0.9904,-1.0717 2.4377,-1.7065 3.8969,-1.7094 l 15.0719,0 0,-3.9915 -15.0719,0 c -1.4592,0 -2.9065,-0.6377 -3.8969,-1.7094 -0.9905,-1.0717 -1.5095,-2.5644 -1.3975,-4.0194 3.7426,-47.3206 41.4258,-84.9823 88.76504,-88.6616 0.1787,-0.016 0.3583,-0.023 0.5377,-0.021 z"
         id="path63217-0"
         style="font-size:medium;font-style:normal;font-variant:normal;font-weight:normal;font-stretch:normal;text-indent:0;text-align:start;text-decoration:none;line-height:normal;letter-spacing:normal;word-spacing:normal;text-transform:none;direction:ltr;block-progression:tb;writing-mode:lr-tb;text-anchor:start;baseline-shift:baseline;color:#000000;fill:#000000;fill-opacity:1;fill-rule:nonzero;stroke:none;stroke-width:3;marker:none;visibility:visible;display:inline;overflow:visible;enable-background:accumulate;font-family:Sans;-inkscape-font-specification:Sans" />
      <g
         transform="translate(22.395707,792.72642)"
         id="g6012-2">
        <g
           transform="matrix(0.75101334,0,0,0.75101334,22.455647,86.457423)"
           id="g6008-3">
          <path
             d="m 125.4357,270.48541 c -1.69831,0.0177 -3.25739,0.15728 -4.60685,0.41566 -11.92069,2.28246 -20.907535,11.73873 -24.073402,25.0779 -0.545263,2.29743 -1.155301,3.44666 -1.073777,3.35988 -0.290882,0.30963 -0.156575,0.2584 -0.381018,0.20783 -0.224443,-0.0505 -0.853668,-0.40421 -1.731899,-1.21233 -0.400072,-0.36815 -1.08965,-0.81093 -1.801175,-0.93522 -0.711525,-0.1243 -1.430421,-0.0855 -2.701763,-0.0693 -11.038287,0.1401 -22.030099,4.46831 -29.16518,11.63836 -6.823826,6.85729 -10.356357,15.38047 -10.772412,25.77066 -0.492613,12.30229 3.409763,24.70545 10.426032,32.14405 5.458924,5.7875 14.791649,9.7061 25.389641,10.9456 0.587371,0.0687 1.440596,0.0791 3.048142,0.10386 1.607546,0.0247 3.806077,0.0196 6.408026,0.0346 5.2039,0.03 12.078695,0.0484 19.397265,0.0346 13.14684,-0.0247 19.81546,-0.0197 23.55383,-0.10386 3.73838,-0.0841 4.70304,-0.28591 6.02701,-0.58884 7.20298,-1.64814 13.39206,-4.47308 21.23308,-9.62936 8.0388,-5.28634 14.5015,-14.1006 16.83406,-23.13817 1.56226,-6.053 0.41554,-14.77735 -2.63248,-20.67888 -2.8614,-5.54019 -8.5444,-9.40277 -14.99825,-10.28748 -1.37904,-0.18904 -1.63069,-0.36929 -2.11292,-1.38552 -0.22216,-0.46816 -0.29719,-0.80347 -0.2771,-1.38552 0.0201,-0.58205 0.19971,-1.40843 0.55421,-2.63248 0.56667,-1.95687 0.64687,-3.18253 0.62348,-7.17007 -0.0235,-4.00146 -0.12252,-5.21643 -0.76204,-7.62035 -2.68532,-10.09422 -9.46249,-16.90311 -20.1593,-20.43641 -4.89232,-1.61597 -11.1607,-2.51231 -16.24521,-2.4593 z"
             id="path66944-3-8"
             style="color:#000000;fill:#ffffff;fill-opacity:1;fill-rule:nonzero;stroke:none;stroke-width:3;marker:none;visibility:visible;display:inline;overflow:visible;enable-background:accumulate" />
          <path
             d="m 123.48278,266.91158 c -17.67536,0 -23.47553,15.35912 -27.855688,30.85581 C 69.3496,292.58276 41.9928,313.09133 41.9928,340.15495 c 0,13.74884 5.716453,24.66815 14.703086,31.65093 8.986644,6.98278 20.923801,10.2136 33.895675,10.2136 20.410209,0 28.219119,-0.0413 43.211369,0 13.89857,0.038 26.74793,-3.09233 36.36489,-9.54017 9.61696,-6.44786 13.93776,-16.77899 15.9377,-29.18171 2.74319,-17.01193 -6.69075,-27.43879 -21.72076,-31.49488 0.56974,-2.40076 1.36008,-4.79876 1.23461,-7.40766 -0.80973,-16.83584 -7.80399,-37.16664 -40.56527,-37.14676 -0.14742,-0.0457 -0.29737,-0.083 -0.44895,-0.11206 -0.12104,-0.003 -0.2155,-0.10996 -0.33654,-0.11206 -0.25753,-0.0622 -0.521,-0.0998 -0.78565,-0.11205 z m 2.12683,4.77862 c 0.0748,0.002 0.14967,0.002 0.22447,0 26.67281,0.78377 35.67822,14.82199 35.67822,29.96167 0,2.75421 -0.48207,5.47306 -1.34685,8.08109 -0.56469,1.86548 0.38743,4.07037 2.13251,4.93845 16.28727,1.84881 18.13294,15.23489 18.52483,23.5317 0.4672,9.8914 -7.59744,22.21917 -15.36894,27.42971 -7.77149,5.21055 -17.74019,11.25086 -30.36303,11.21617 -15.01552,-0.0413 -22.92468,0 -43.323607,0 -11.575237,0 -21.745414,-3.01353 -28.844992,-8.53003 -7.099578,-5.51652 -11.676048,-16.62905 -12.511627,-28.16401 -1.959423,-27.0492 17.951331,-41.64004 40.180967,-41.64004 -0.02516,0 0.418959,0.0787 1.346847,0.11206 4.354011,4.7769 5.503116,0.84876 5.832548,-1.12805 2.15977,-13.07674 12.659634,-25.70554 27.838654,-25.80891 z"
             id="path6411-0-3"
             style="font-size:medium;font-style:normal;font-variant:normal;font-weight:normal;font-stretch:normal;text-indent:0;text-align:start;text-decoration:none;line-height:normal;letter-spacing:normal;word-spacing:normal;text-transform:none;direction:ltr;block-progression:tb;writing-mode:lr-tb;text-anchor:start;baseline-shift:baseline;color:#000000;fill:#000000;fill-opacity:1;stroke:none;stroke-width:2.32032228;marker:none;visibility:visible;display:inline;overflow:visible;enable-background:accumulate;font-family:Sans;-inkscape-font-specification:Sans" />
        </g>
        <path
           d="m 89.01203,326.50362 c 2.25912,8.69593 6.88689,15.23278 10.90947,17.26253 4.48447,2.26317 8.60583,-6.34402 10.4756,-8.74617 8.55483,-10.98936 35.02452,-49.42006 60.46234,-56.08986 1.38133,-0.36193 1.55301,1.64815 0.6702,1.91295 -22.9424,6.88196 -48.53214,49.81624 -58.33576,74.24498 -3.61386,9.0048 -6.25224,12.09888 -12.43985,9.07926 -12.663599,-6.1801 -25.132895,-25.47325 -25.641824,-31.76446 -1.024675,-12.66899 12.887723,-9.79654 13.899824,-5.89923 z"
           id="path5902-0-6-4-3-6-7-2"
           style="fill:#000000;fill-opacity:1;fill-rule:nonzero;stroke:none;display:inline;enable-background:new" />
      </g>
    </g>
  </g>
</svg>
