<?xml version="1.0" encoding="UTF-8" standalone="no"?>
<!-- Created with Inkscape (http://www.inkscape.org/) -->

<svg
   xmlns:dc="http://purl.org/dc/elements/1.1/"
   xmlns:cc="http://creativecommons.org/ns#"
   xmlns:rdf="http://www.w3.org/1999/02/22-rdf-syntax-ns#"
   xmlns:svg="http://www.w3.org/2000/svg"
   xmlns="http://www.w3.org/2000/svg"
   version="1.1"
   width="77.741112"
   height="131.45441"
   id="svg9545">
  <defs
     id="defs9547" />
  <metadata
     id="metadata9550">
    <rdf:RDF>
      <cc:Work
         rdf:about="">
        <dc:format>image/svg+xml</dc:format>
        <dc:type
           rdf:resource="http://purl.org/dc/dcmitype/StillImage" />
        <dc:title></dc:title>
      </cc:Work>
    </rdf:RDF>
  </metadata>
  <g
     transform="translate(-369.70088,-166.63498)"
     id="layer1">
    <g
       transform="matrix(0.72177848,0,0,0.72177848,-244.78067,1.1636418)"
       id="g59287-0-3"
       style="display:inline">
      <path
         d="m 887.33071,406.69316 c -5.8583,-1.66586 -12.76176,-4.72985 -15.0961,-8.3055 -1.49905,-2.29619 -2.33148,-0.78822 -2.51457,-12.71357 l -0.2544,-16.57109 -6.91801,-0.59422 c -9.44105,-0.8109 -10.12303,-1.66326 -9.97122,-12.46189 0.30292,-21.54434 11.04786,-46.60007 19.24811,-53.50013 4.03919,-3.39876 7.1891,-3.33663 16.39021,0.32322 12.94464,5.1489 21.53439,5.25377 37.21622,-0.99042 l 10.1724,-2.12343 2.80226,2.07984 c 4.33267,3.21573 8.78784,10.74154 12.25605,20.20208 4.34989,11.86565 6.79317,23.06192 6.81219,33.03686 0.0181,9.47548 -4.54251,10.21202 -11.67969,10.21202 -7.98383,0 -9.60296,6.93302 -7.95343,22.632 1.21326,11.547 1.09056,10.14483 -4.37916,13.33011 -9.06666,5.27992 -35.66813,8.41928 -46.13086,5.44412 z"
         id="path6445-4-8-0"
         style="fill:#ffffff;fill-opacity:0.19607843;stroke:none;display:inline" />
      <path
         d="m 926.53027,296.40878 c -17.29505,8.73924 -20.89564,6.57766 -44.79378,-0.38985 -18.33909,-5.34677 -33.37583,43.36285 -29.88635,67.56089 1.05518,7.31727 3.31866,3.99331 14.44871,6.44604 7.6437,1.68444 -3.15087,27.11194 6.02428,33.41724 15.33099,10.53571 48.28934,10.16965 64.66642,1.34742 9.31546,-5.01821 2.77634,-35.15514 7.6608,-36.21734 4.48694,-0.97572 9.6737,1.75081 12.36374,-4.57179 8.39806,-19.73849 -10.62087,-77.62944 -30.48382,-67.59261 z m 2.96729,4.9953 c 13.30692,-6.06533 27.11707,35.74986 25.03596,58.17448 -0.60477,6.51657 -12.08455,0.6953 -15.53767,6.25474 -5.55944,8.95056 5.0607,28.06982 -3.76184,33.83026 -12.96545,8.46547 -54.43487,12.90876 -61.07355,-1.08034 -5.34993,-11.27339 1.52321,-30.58056 -2.38192,-31.34397 -7.89465,-1.54335 -16.58679,3.26681 -16.83363,-8.28947 -0.4582,-21.45145 9.70651,-66.86922 28.9141,-57.30662 17.68831,8.80622 28.53436,7.5571 45.63855,-0.23908 z"
         id="path6433-0-6-7"
         style="font-size:medium;font-style:normal;font-variant:normal;font-weight:normal;font-stretch:normal;text-indent:0;text-align:start;text-decoration:none;line-height:normal;letter-spacing:normal;word-spacing:normal;text-transform:none;direction:ltr;block-progression:tb;writing-mode:lr-tb;text-anchor:start;baseline-shift:baseline;color:#000000;fill:#000000;fill-opacity:1;stroke:none;stroke-width:3;marker:none;visibility:visible;display:inline;overflow:visible;enable-background:accumulate;font-family:Sans;-inkscape-font-specification:Sans" />
      <path
         d="m 905.29958,229.29029 c -21.33921,-0.80097 -34.32056,12.13044 -34.32056,29.64008 0,17.50965 15.09115,33.23793 33.96077,33.23793 18.86962,0 30.4058,-13.56958 30.4058,-31.07922 0,-17.50966 -10.05929,-31.04861 -30.04601,-31.79879 z m -6.11632,2.60873 c 19.11357,0 31.30128,5.01433 32.74043,28.47048 0.92966,15.15263 -13.52975,28.7276 -31.66107,26.31178 -17.1101,-2.27977 -27.30082,-11.85022 -27.30082,-27.03136 0,-15.18112 11.4253,-27.7509 26.22146,-27.7509 z"
         id="path6333-1-6-6-1"
         style="font-size:medium;font-style:normal;font-variant:normal;font-weight:normal;font-stretch:normal;text-indent:0;text-align:start;text-decoration:none;line-height:normal;letter-spacing:normal;word-spacing:normal;text-transform:none;direction:ltr;block-progression:tb;writing-mode:lr-tb;text-anchor:start;baseline-shift:baseline;color:#000000;fill:#000000;fill-opacity:1;stroke:none;stroke-width:4.60598898;marker:none;visibility:visible;display:inline;overflow:visible;enable-background:accumulate;font-family:Sans;-inkscape-font-specification:Sans" />
      <path
         d="m 894.57656,285.13928 c -9.01796,-2.52234 -14.93439,-6.99812 -18.30729,-13.84942 -6.76817,-13.74811 -0.65269,-30.52412 13.50705,-37.05267 3.04263,-1.40283 4.70414,-1.6292 11.81552,-1.60972 6.75935,0.0185 9.18581,0.33278 13.24764,1.71574 9.29238,3.16391 14.55017,10.33373 16.21887,22.11689 1.69531,11.97102 -3.97653,22.38476 -14.94916,27.44727 -5.06387,2.33634 -15.45792,2.931 -21.53263,1.23191 z"
         id="path6361-7-4-4-2"
         style="fill:#ffffff;fill-opacity:0.19607843;stroke:none;display:inline" />
    </g>
  </g>
</svg>
